(export (version D)
  (design
    (source C:\Rust\JTAG_Chain\JTAG_Chain\JTAG_Chain.sch)
    (date "28.11.2018 15:50:14")
    (tool "Eeschema (5.0.0)")
    (sheet (number 1) (name /) (tstamps /)
      (title_block
        (title "FM Board JTAG Adapter")
        (company SIEMENS)
        (rev 1.0)
        (date 2018-11-28)
        (source JTAG_Chain.sch)
        (comment (number 1) (value "Petr Hodina"))
        (comment (number 2) (value ""))
        (comment (number 3) (value ""))
        (comment (number 4) (value "")))))
  (components
    (comp (ref J1)
      (value Channel_A)
      (footprint Connector_PinHeader_1.27mm:PinHeader_2x10_P1.27mm_Vertical)
      (datasheet http://infocenter.arm.com/help/topic/com.arm.doc.dui0499b/DUI0499B_system_design_reference.pdf)
      (libsource (lib Connector) (part CoreSight_JTAG_SWD_20) (description "Standard IDC20 Male Connector, ARM legacy JTAG and SWD interface"))
      (sheetpath (names /) (tstamps /))
      (tstamp 5C01B7A1))
    (comp (ref J3)
      (value Debugger)
      (footprint Connector_PinHeader_1.27mm:PinHeader_2x10_P1.27mm_Vertical)
      (datasheet http://infocenter.arm.com/help/topic/com.arm.doc.dui0499b/DUI0499B_system_design_reference.pdf)
      (libsource (lib Connector) (part CoreSight_JTAG_SWD_20) (description "Standard IDC20 Male Connector, ARM legacy JTAG and SWD interface"))
      (sheetpath (names /) (tstamps /))
      (tstamp 5C01B823))
    (comp (ref J2)
      (value TRACE_A)
      (footprint Connector_PinHeader_1.27mm:PinHeader_1x05_P1.27mm_Vertical_SMD_Pin1Left)
      (datasheet ~)
      (libsource (lib Connector) (part Conn_01x05_Male) (description "Generic connector, single row, 01x05, script generated (kicad-library-utils/schlib/autogen/connector/)"))
      (sheetpath (names /) (tstamps /))
      (tstamp 5C01B9F2))
    (comp (ref J4)
      (value TRACE_DBG)
      (footprint Connector_PinHeader_1.27mm:PinHeader_1x05_P1.27mm_Vertical_SMD_Pin1Left)
      (datasheet ~)
      (libsource (lib Connector) (part Conn_01x05_Male) (description "Generic connector, single row, 01x05, script generated (kicad-library-utils/schlib/autogen/connector/)"))
      (sheetpath (names /) (tstamps /))
      (tstamp 5C01BB02))
    (comp (ref D1)
      (value D_Schottky)
      (footprint Diode_SMD:D_SOD-323)
      (datasheet ~)
      (libsource (lib Device) (part D_Schottky) (description "Schottky diode"))
      (sheetpath (names /) (tstamps /))
      (tstamp 5C03B1E7))
    (comp (ref J5)
      (value SRST)
      (footprint Connector_PinHeader_1.27mm:PinHeader_1x02_P1.27mm_Vertical)
      (datasheet ~)
      (libsource (lib Connector) (part Conn_01x02_Male) (description "Generic connector, single row, 01x02, script generated (kicad-library-utils/schlib/autogen/connector/)"))
      (sheetpath (names /) (tstamps /))
      (tstamp 5C03FC80))
    (comp (ref J6)
      (value VCC)
      (footprint Connector_PinHeader_1.27mm:PinHeader_1x03_P1.27mm_Vertical)
      (datasheet ~)
      (libsource (lib Connector) (part Conn_01x03_Male) (description "Generic connector, single row, 01x03, script generated (kicad-library-utils/schlib/autogen/connector/)"))
      (sheetpath (names /) (tstamps /))
      (tstamp 5C049B14))
    (comp (ref J8)
      (value TRACE_B)
      (footprint Connector_PinHeader_1.27mm:PinHeader_1x05_P1.27mm_Vertical_SMD_Pin1Left)
      (datasheet ~)
      (libsource (lib Connector) (part Conn_01x05_Male) (description "Generic connector, single row, 01x05, script generated (kicad-library-utils/schlib/autogen/connector/)"))
      (sheetpath (names /) (tstamps /))
      (tstamp 5C06382C))
    (comp (ref J7)
      (value Channel_B)
      (footprint Connector_PinHeader_1.27mm:PinHeader_2x10_P1.27mm_Vertical)
      (datasheet http://infocenter.arm.com/help/topic/com.arm.doc.dui0499b/DUI0499B_system_design_reference.pdf)
      (libsource (lib Connector) (part CoreSight_JTAG_SWD_20) (description "Standard IDC20 Male Connector, ARM legacy JTAG and SWD interface"))
      (sheetpath (names /) (tstamps /))
      (tstamp 5C01B88A))
    (comp (ref J9)
      (value Conn_01x04_Male)
      (footprint Connector_PinHeader_1.27mm:PinHeader_1x04_P1.27mm_Vertical_SMD_Pin1Left)
      (datasheet ~)
      (libsource (lib Connector) (part Conn_01x04_Male) (description "Generic connector, single row, 01x04, script generated (kicad-library-utils/schlib/autogen/connector/)"))
      (sheetpath (names /) (tstamps /))
      (tstamp 5C077B4E))
    (comp (ref D2)
      (value PWR_A)
      (footprint LED_SMD:LED_0805_2012Metric)
      (datasheet ~)
      (libsource (lib Device) (part LED) (description "LED generic"))
      (sheetpath (names /) (tstamps /))
      (tstamp 5C07B3AC))
    (comp (ref D3)
      (value PWR_B)
      (footprint LED_SMD:LED_0805_2012Metric)
      (datasheet ~)
      (libsource (lib Device) (part LED) (description "LED generic"))
      (sheetpath (names /) (tstamps /))
      (tstamp 5C07B56E))
    (comp (ref R1)
      (value R)
      (footprint Resistor_SMD:R_0805_2012Metric)
      (datasheet ~)
      (libsource (lib Device) (part R) (description Resistor))
      (sheetpath (names /) (tstamps /))
      (tstamp 5C07B5DC))
    (comp (ref R2)
      (value R)
      (footprint Resistor_SMD:R_0805_2012Metric)
      (datasheet ~)
      (libsource (lib Device) (part R) (description Resistor))
      (sheetpath (names /) (tstamps /))
      (tstamp 5C07B647))
    (comp (ref MH1)
      (value MountingHole_Pad)
      (datasheet ~)
      (libsource (lib Mechanical) (part MountingHole_Pad) (description "Mounting Hole with connection"))
      (sheetpath (names /) (tstamps /))
      (tstamp 5C082200)))
  (libparts
    (libpart (lib Connector) (part Conn_01x02_Male)
      (description "Generic connector, single row, 01x02, script generated (kicad-library-utils/schlib/autogen/connector/)")
      (docs ~)
      (footprints
        (fp Connector*:*_1x??_*))
      (fields
        (field (name Reference) J)
        (field (name Value) Conn_01x02_Male))
      (pins
        (pin (num 1) (name Pin_1) (type passive))
        (pin (num 2) (name Pin_2) (type passive))))
    (libpart (lib Connector) (part Conn_01x03_Male)
      (description "Generic connector, single row, 01x03, script generated (kicad-library-utils/schlib/autogen/connector/)")
      (docs ~)
      (footprints
        (fp Connector*:*_1x??_*))
      (fields
        (field (name Reference) J)
        (field (name Value) Conn_01x03_Male))
      (pins
        (pin (num 1) (name Pin_1) (type passive))
        (pin (num 2) (name Pin_2) (type passive))
        (pin (num 3) (name Pin_3) (type passive))))
    (libpart (lib Connector) (part Conn_01x04_Male)
      (description "Generic connector, single row, 01x04, script generated (kicad-library-utils/schlib/autogen/connector/)")
      (docs ~)
      (footprints
        (fp Connector*:*_1x??_*))
      (fields
        (field (name Reference) J)
        (field (name Value) Conn_01x04_Male))
      (pins
        (pin (num 1) (name Pin_1) (type passive))
        (pin (num 2) (name Pin_2) (type passive))
        (pin (num 3) (name Pin_3) (type passive))
        (pin (num 4) (name Pin_4) (type passive))))
    (libpart (lib Connector) (part Conn_01x05_Male)
      (description "Generic connector, single row, 01x05, script generated (kicad-library-utils/schlib/autogen/connector/)")
      (docs ~)
      (footprints
        (fp Connector*:*_1x??_*))
      (fields
        (field (name Reference) J)
        (field (name Value) Conn_01x05_Male))
      (pins
        (pin (num 1) (name Pin_1) (type passive))
        (pin (num 2) (name Pin_2) (type passive))
        (pin (num 3) (name Pin_3) (type passive))
        (pin (num 4) (name Pin_4) (type passive))
        (pin (num 5) (name Pin_5) (type passive))))
    (libpart (lib Connector) (part CoreSight_JTAG_SWD_20)
      (description "Standard IDC20 Male Connector, ARM legacy JTAG and SWD interface")
      (docs http://infocenter.arm.com/help/topic/com.arm.doc.dui0499b/DUI0499B_system_design_reference.pdf)
      (footprints
        (fp IDC*Header*Straight*)
        (fp PinHeader*2x10*P1.27mm*))
      (fields
        (field (name Reference) J)
        (field (name Value) CoreSight_JTAG_SWD_20))
      (pins
        (pin (num 1) (name VTREF) (type power_in))
        (pin (num 2) (name TMS/) (type BiDi))
        (pin (num 3) (name GND) (type input))
        (pin (num 4) (name TCK/SWCLK) (type input))
        (pin (num 5) (name GND) (type passive))
        (pin (num 6) (name TDO/SWO) (type output))
        (pin (num 7) (name KEY) (type NotConnected))
        (pin (num 8) (name TDI) (type input))
        (pin (num 9) (name GND) (type passive))
        (pin (num 10) (name SRST) (type input))
        (pin (num 11) (name NC) (type NotConnected))
        (pin (num 12) (name T_CLK) (type BiDi))
        (pin (num 13) (name NC) (type NotConnected))
        (pin (num 14) (name T_D0) (type BiDi))
        (pin (num 15) (name GND) (type BiDi))
        (pin (num 16) (name T_D1) (type BiDi))
        (pin (num 17) (name GND) (type passive))
        (pin (num 18) (name T_D2) (type BiDi))
        (pin (num 19) (name GND) (type passive))
        (pin (num 20) (name T_D3) (type BiDi))))
    (libpart (lib Device) (part D_Schottky)
      (description "Schottky diode")
      (docs ~)
      (footprints
        (fp TO-???*)
        (fp *_Diode_*)
        (fp *SingleDiode*)
        (fp D_*))
      (fields
        (field (name Reference) D)
        (field (name Value) D_Schottky))
      (pins
        (pin (num 1) (name K) (type passive))
        (pin (num 2) (name A) (type passive))))
    (libpart (lib Device) (part LED)
      (description "LED generic")
      (docs ~)
      (footprints
        (fp LED*)
        (fp LED_SMD:*)
        (fp LED_THT:*))
      (fields
        (field (name Reference) D)
        (field (name Value) LED))
      (pins
        (pin (num 1) (name K) (type passive))
        (pin (num 2) (name A) (type passive))))
    (libpart (lib Device) (part R)
      (description Resistor)
      (docs ~)
      (footprints
        (fp R_*))
      (fields
        (field (name Reference) R)
        (field (name Value) R))
      (pins
        (pin (num 1) (name ~) (type passive))
        (pin (num 2) (name ~) (type passive))))
    (libpart (lib Mechanical) (part MountingHole_Pad)
      (description "Mounting Hole with connection")
      (docs ~)
      (footprints
        (fp MountingHole*Pad*))
      (fields
        (field (name Reference) MH)
        (field (name Value) MountingHole_Pad))
      (pins
        (pin (num 1) (name 1) (type input)))))
  (libraries
    (library (logical Connector)
      (uri C:\Rust\JTAG_Chain\JTAG_Chain/Connector.lib))
    (library (logical Device)
      (uri "C:\\Program Files\\KiCad\\share\\kicad\\library/Device.lib"))
    (library (logical Mechanical)
      (uri "C:\\Program Files\\KiCad\\share\\kicad\\library/Mechanical.lib")))
  (nets
    (net (code 1) (name "Net-(J7-Pad13)")
      (node (ref J7) (pin 13)))
    (net (code 2) (name "Net-(J7-Pad16)")
      (node (ref J8) (pin 3))
      (node (ref J7) (pin 16)))
    (net (code 3) (name "Net-(J7-Pad14)")
      (node (ref J8) (pin 4))
      (node (ref J7) (pin 14)))
    (net (code 4) (name "Net-(J7-Pad12)")
      (node (ref J8) (pin 5))
      (node (ref J7) (pin 12)))
    (net (code 5) (name "Net-(J7-Pad18)")
      (node (ref J7) (pin 18))
      (node (ref J8) (pin 2)))
    (net (code 6) (name "Net-(J7-Pad20)")
      (node (ref J8) (pin 1))
      (node (ref J7) (pin 20)))
    (net (code 7) (name "Net-(J7-Pad11)")
      (node (ref J7) (pin 11)))
    (net (code 8) (name /VCC_CH_A)
      (node (ref D2) (pin 2))
      (node (ref J6) (pin 3))
      (node (ref J1) (pin 1)))
    (net (code 9) (name /VCC_CH_B)
      (node (ref D3) (pin 2))
      (node (ref J7) (pin 1))
      (node (ref J6) (pin 1)))
    (net (code 10) (name /VCC_DBG)
      (node (ref J6) (pin 2))
      (node (ref J3) (pin 1)))
    (net (code 11) (name /TCK)
      (node (ref J1) (pin 4))
      (node (ref J3) (pin 4))
      (node (ref J7) (pin 4)))
    (net (code 12) (name "Net-(D1-Pad2)")
      (node (ref D1) (pin 2))
      (node (ref J5) (pin 2)))
    (net (code 13) (name "Net-(D2-Pad1)")
      (node (ref D2) (pin 1))
      (node (ref R1) (pin 1)))
    (net (code 14) (name GND)
      (node (ref J3) (pin 19))
      (node (ref J3) (pin 17))
      (node (ref J3) (pin 15))
      (node (ref J3) (pin 3))
      (node (ref J1) (pin 15))
      (node (ref J1) (pin 17))
      (node (ref J1) (pin 19))
      (node (ref J1) (pin 3))
      (node (ref J1) (pin 5))
      (node (ref J1) (pin 9))
      (node (ref J7) (pin 3))
      (node (ref J7) (pin 19))
      (node (ref J3) (pin 9))
      (node (ref J3) (pin 5))
      (node (ref J7) (pin 5))
      (node (ref J9) (pin 4))
      (node (ref R2) (pin 2))
      (node (ref R1) (pin 2))
      (node (ref J7) (pin 17))
      (node (ref J7) (pin 9))
      (node (ref J7) (pin 15))
      (node (ref J9) (pin 1))
      (node (ref J9) (pin 2))
      (node (ref J9) (pin 3)))
    (net (code 15) (name "Net-(D3-Pad1)")
      (node (ref D3) (pin 1))
      (node (ref R2) (pin 1)))
    (net (code 16) (name "Net-(MH1-Pad1)")
      (node (ref MH1) (pin 1)))
    (net (code 17) (name "Net-(J7-Pad7)")
      (node (ref J7) (pin 7)))
    (net (code 18) (name "Net-(J7-Pad10)")
      (node (ref J7) (pin 10)))
    (net (code 19) (name "Net-(J3-Pad7)")
      (node (ref J3) (pin 7)))
    (net (code 20) (name "Net-(J3-Pad13)")
      (node (ref J3) (pin 13)))
    (net (code 21) (name "Net-(J3-Pad20)")
      (node (ref J3) (pin 20))
      (node (ref J4) (pin 1)))
    (net (code 22) (name "Net-(J3-Pad18)")
      (node (ref J4) (pin 2))
      (node (ref J3) (pin 18)))
    (net (code 23) (name "Net-(J3-Pad16)")
      (node (ref J4) (pin 3))
      (node (ref J3) (pin 16)))
    (net (code 24) (name "Net-(J3-Pad14)")
      (node (ref J3) (pin 14))
      (node (ref J4) (pin 4)))
    (net (code 25) (name "Net-(J1-Pad20)")
      (node (ref J1) (pin 20))
      (node (ref J2) (pin 1)))
    (net (code 26) (name "Net-(J1-Pad10)")
      (node (ref J1) (pin 10)))
    (net (code 27) (name "Net-(J1-Pad11)")
      (node (ref J1) (pin 11)))
    (net (code 28) (name "Net-(J1-Pad12)")
      (node (ref J1) (pin 12))
      (node (ref J2) (pin 5)))
    (net (code 29) (name "Net-(J1-Pad13)")
      (node (ref J1) (pin 13)))
    (net (code 30) (name "Net-(J1-Pad14)")
      (node (ref J2) (pin 4))
      (node (ref J1) (pin 14)))
    (net (code 31) (name "Net-(J1-Pad16)")
      (node (ref J1) (pin 16))
      (node (ref J2) (pin 3)))
    (net (code 32) (name "Net-(J1-Pad18)")
      (node (ref J2) (pin 2))
      (node (ref J1) (pin 18)))
    (net (code 33) (name "Net-(J1-Pad7)")
      (node (ref J1) (pin 7)))
    (net (code 34) (name "Net-(J3-Pad11)")
      (node (ref J3) (pin 11)))
    (net (code 35) (name "Net-(J3-Pad12)")
      (node (ref J3) (pin 12))
      (node (ref J4) (pin 5)))
    (net (code 36) (name /TDO_A)
      (node (ref J7) (pin 8))
      (node (ref J1) (pin 6)))
    (net (code 37) (name /TMS)
      (node (ref J1) (pin 2))
      (node (ref J7) (pin 2))
      (node (ref J3) (pin 2)))
    (net (code 38) (name /TDO_B)
      (node (ref J3) (pin 6))
      (node (ref J7) (pin 6)))
    (net (code 39) (name /TDI_DBG)
      (node (ref J1) (pin 8))
      (node (ref J3) (pin 8)))
    (net (code 40) (name /SRST)
      (node (ref D1) (pin 1))
      (node (ref J3) (pin 10))
      (node (ref J5) (pin 1)))))