G04 #@! TF.GenerationSoftware,KiCad,Pcbnew,(5.0.0)*
G04 #@! TF.CreationDate,2019-01-22T08:57:55+01:00*
G04 #@! TF.ProjectId,JTAG_Chain,4A5441475F436861696E2E6B69636164,rev?*
G04 #@! TF.SameCoordinates,Original*
G04 #@! TF.FileFunction,Copper,L2,Bot,Signal*
G04 #@! TF.FilePolarity,Positive*
%FSLAX46Y46*%
G04 Gerber Fmt 4.6, Leading zero omitted, Abs format (unit mm)*
G04 Created by KiCad (PCBNEW (5.0.0)) date 01/22/19 08:57:55*
%MOMM*%
%LPD*%
G01*
G04 APERTURE LIST*
G04 #@! TA.AperFunction,ComponentPad*
%ADD10R,1.000000X1.000000*%
G04 #@! TD*
G04 #@! TA.AperFunction,ComponentPad*
%ADD11O,1.000000X1.000000*%
G04 #@! TD*
G04 #@! TA.AperFunction,ViaPad*
%ADD12C,0.800000*%
G04 #@! TD*
G04 #@! TA.AperFunction,Conductor*
%ADD13C,0.250000*%
G04 #@! TD*
G04 #@! TA.AperFunction,Conductor*
%ADD14C,0.254000*%
G04 #@! TD*
G04 APERTURE END LIST*
D10*
G04 #@! TO.P,J5,1*
G04 #@! TO.N,/SRST*
X100076000Y-52324000D03*
D11*
G04 #@! TO.P,J5,2*
G04 #@! TO.N,Net-(D1-Pad2)*
X101346000Y-52324000D03*
G04 #@! TD*
D10*
G04 #@! TO.P,J7,1*
G04 #@! TO.N,/VCC_CH_B*
X64770000Y-59690000D03*
D11*
G04 #@! TO.P,J7,2*
G04 #@! TO.N,/TMS*
X64770000Y-58420000D03*
G04 #@! TO.P,J7,3*
G04 #@! TO.N,GND*
X66040000Y-59690000D03*
G04 #@! TO.P,J7,4*
G04 #@! TO.N,/TCK*
X66040000Y-58420000D03*
G04 #@! TO.P,J7,5*
G04 #@! TO.N,GND*
X67310000Y-59690000D03*
G04 #@! TO.P,J7,6*
G04 #@! TO.N,/TDO_B*
X67310000Y-58420000D03*
G04 #@! TO.P,J7,7*
G04 #@! TO.N,Net-(J7-Pad7)*
X68580000Y-59690000D03*
G04 #@! TO.P,J7,8*
G04 #@! TO.N,/TDO_A*
X68580000Y-58420000D03*
G04 #@! TO.P,J7,9*
G04 #@! TO.N,GND*
X69850000Y-59690000D03*
G04 #@! TO.P,J7,10*
G04 #@! TO.N,Net-(J7-Pad10)*
X69850000Y-58420000D03*
G04 #@! TO.P,J7,11*
G04 #@! TO.N,Net-(J7-Pad11)*
X71120000Y-59690000D03*
G04 #@! TO.P,J7,12*
G04 #@! TO.N,Net-(J7-Pad12)*
X71120000Y-58420000D03*
G04 #@! TO.P,J7,13*
G04 #@! TO.N,Net-(J7-Pad13)*
X72390000Y-59690000D03*
G04 #@! TO.P,J7,14*
G04 #@! TO.N,Net-(J7-Pad14)*
X72390000Y-58420000D03*
G04 #@! TO.P,J7,15*
G04 #@! TO.N,GND*
X73660000Y-59690000D03*
G04 #@! TO.P,J7,16*
G04 #@! TO.N,Net-(J7-Pad16)*
X73660000Y-58420000D03*
G04 #@! TO.P,J7,17*
G04 #@! TO.N,GND*
X74930000Y-59690000D03*
G04 #@! TO.P,J7,18*
G04 #@! TO.N,Net-(J7-Pad18)*
X74930000Y-58420000D03*
G04 #@! TO.P,J7,19*
G04 #@! TO.N,GND*
X76200000Y-59690000D03*
G04 #@! TO.P,J7,20*
G04 #@! TO.N,Net-(J7-Pad20)*
X76200000Y-58420000D03*
G04 #@! TD*
D10*
G04 #@! TO.P,J1,1*
G04 #@! TO.N,/VCC_CH_A*
X85200000Y-59690000D03*
D11*
G04 #@! TO.P,J1,2*
G04 #@! TO.N,/TMS*
X85200000Y-58420000D03*
G04 #@! TO.P,J1,3*
G04 #@! TO.N,GND*
X86470000Y-59690000D03*
G04 #@! TO.P,J1,4*
G04 #@! TO.N,/TCK*
X86470000Y-58420000D03*
G04 #@! TO.P,J1,5*
G04 #@! TO.N,GND*
X87740000Y-59690000D03*
G04 #@! TO.P,J1,6*
G04 #@! TO.N,/TDO_A*
X87740000Y-58420000D03*
G04 #@! TO.P,J1,7*
G04 #@! TO.N,Net-(J1-Pad7)*
X89010000Y-59690000D03*
G04 #@! TO.P,J1,8*
G04 #@! TO.N,/TDI_DBG*
X89010000Y-58420000D03*
G04 #@! TO.P,J1,9*
G04 #@! TO.N,GND*
X90280000Y-59690000D03*
G04 #@! TO.P,J1,10*
G04 #@! TO.N,Net-(J1-Pad10)*
X90280000Y-58420000D03*
G04 #@! TO.P,J1,11*
G04 #@! TO.N,Net-(J1-Pad11)*
X91550000Y-59690000D03*
G04 #@! TO.P,J1,12*
G04 #@! TO.N,Net-(J1-Pad12)*
X91550000Y-58420000D03*
G04 #@! TO.P,J1,13*
G04 #@! TO.N,Net-(J1-Pad13)*
X92820000Y-59690000D03*
G04 #@! TO.P,J1,14*
G04 #@! TO.N,Net-(J1-Pad14)*
X92820000Y-58420000D03*
G04 #@! TO.P,J1,15*
G04 #@! TO.N,GND*
X94090000Y-59690000D03*
G04 #@! TO.P,J1,16*
G04 #@! TO.N,Net-(J1-Pad16)*
X94090000Y-58420000D03*
G04 #@! TO.P,J1,17*
G04 #@! TO.N,GND*
X95360000Y-59690000D03*
G04 #@! TO.P,J1,18*
G04 #@! TO.N,Net-(J1-Pad18)*
X95360000Y-58420000D03*
G04 #@! TO.P,J1,19*
G04 #@! TO.N,GND*
X96630000Y-59690000D03*
G04 #@! TO.P,J1,20*
G04 #@! TO.N,Net-(J1-Pad20)*
X96630000Y-58420000D03*
G04 #@! TD*
G04 #@! TO.P,J3,20*
G04 #@! TO.N,Net-(J3-Pad20)*
X115570000Y-58420000D03*
G04 #@! TO.P,J3,19*
G04 #@! TO.N,GND*
X115570000Y-59690000D03*
G04 #@! TO.P,J3,18*
G04 #@! TO.N,Net-(J3-Pad18)*
X114300000Y-58420000D03*
G04 #@! TO.P,J3,17*
G04 #@! TO.N,GND*
X114300000Y-59690000D03*
G04 #@! TO.P,J3,16*
G04 #@! TO.N,Net-(J3-Pad16)*
X113030000Y-58420000D03*
G04 #@! TO.P,J3,15*
G04 #@! TO.N,GND*
X113030000Y-59690000D03*
G04 #@! TO.P,J3,14*
G04 #@! TO.N,Net-(J3-Pad14)*
X111760000Y-58420000D03*
G04 #@! TO.P,J3,13*
G04 #@! TO.N,Net-(J3-Pad13)*
X111760000Y-59690000D03*
G04 #@! TO.P,J3,12*
G04 #@! TO.N,Net-(J3-Pad12)*
X110490000Y-58420000D03*
G04 #@! TO.P,J3,11*
G04 #@! TO.N,Net-(J3-Pad11)*
X110490000Y-59690000D03*
G04 #@! TO.P,J3,10*
G04 #@! TO.N,/SRST*
X109220000Y-58420000D03*
G04 #@! TO.P,J3,9*
G04 #@! TO.N,GND*
X109220000Y-59690000D03*
G04 #@! TO.P,J3,8*
G04 #@! TO.N,/TDI_DBG*
X107950000Y-58420000D03*
G04 #@! TO.P,J3,7*
G04 #@! TO.N,Net-(J3-Pad7)*
X107950000Y-59690000D03*
G04 #@! TO.P,J3,6*
G04 #@! TO.N,/TDO_B*
X106680000Y-58420000D03*
G04 #@! TO.P,J3,5*
G04 #@! TO.N,GND*
X106680000Y-59690000D03*
G04 #@! TO.P,J3,4*
G04 #@! TO.N,/TCK*
X105410000Y-58420000D03*
G04 #@! TO.P,J3,3*
G04 #@! TO.N,GND*
X105410000Y-59690000D03*
G04 #@! TO.P,J3,2*
G04 #@! TO.N,/TMS*
X104140000Y-58420000D03*
D10*
G04 #@! TO.P,J3,1*
G04 #@! TO.N,/VCC_DBG*
X104140000Y-59690000D03*
G04 #@! TD*
G04 #@! TO.P,J6,1*
G04 #@! TO.N,/VCC_CH_B*
X100330000Y-60960000D03*
D11*
G04 #@! TO.P,J6,2*
G04 #@! TO.N,/VCC_DBG*
X100330000Y-59690000D03*
G04 #@! TO.P,J6,3*
G04 #@! TO.N,/VCC_CH_A*
X100330000Y-58420000D03*
G04 #@! TD*
D12*
G04 #@! TO.N,/TMS*
X104140000Y-54356000D03*
X84836000Y-54356000D03*
G04 #@! TO.N,/TCK*
X105156000Y-55149989D03*
X86360000Y-55149989D03*
G04 #@! TO.N,/TDO_B*
X106674989Y-55874989D03*
G04 #@! TD*
D13*
G04 #@! TO.N,/TMS*
X64770000Y-58420000D02*
X68834000Y-54356000D01*
X68834000Y-54356000D02*
X84836000Y-54356000D01*
X84836000Y-54356000D02*
X104140000Y-54356000D01*
G04 #@! TO.N,/TCK*
X66040000Y-58420000D02*
X69310011Y-55149989D01*
X69310011Y-55149989D02*
X86360000Y-55149989D01*
X86360000Y-55149989D02*
X105156000Y-55149989D01*
G04 #@! TO.N,/TDO_A*
X87240001Y-57920001D02*
X87740000Y-58420000D01*
X85644999Y-56324999D02*
X87240001Y-57920001D01*
X70675001Y-56324999D02*
X85644999Y-56324999D01*
X68580000Y-58420000D02*
X70675001Y-56324999D01*
G04 #@! TO.N,/TDO_B*
X69855011Y-55874989D02*
X106674989Y-55874989D01*
X67310000Y-58420000D02*
X69855011Y-55874989D01*
G04 #@! TO.N,/TDI_DBG*
X89509999Y-57920001D02*
X89010000Y-58420000D01*
X90026000Y-57404000D02*
X89509999Y-57920001D01*
X106934000Y-57404000D02*
X90026000Y-57404000D01*
X107950000Y-58420000D02*
X106934000Y-57404000D01*
G04 #@! TD*
D14*
G04 #@! TO.N,GND*
G36*
X123063000Y-49582606D02*
X123063000Y-62177394D01*
X121867394Y-63373000D01*
X63552606Y-63373000D01*
X62357000Y-62177394D01*
X62357000Y-58420000D01*
X63612765Y-58420000D01*
X63700854Y-58862855D01*
X63712869Y-58880836D01*
X63671843Y-58942235D01*
X63622560Y-59190000D01*
X63622560Y-60190000D01*
X63671843Y-60437765D01*
X63812191Y-60647809D01*
X64022235Y-60788157D01*
X64270000Y-60837440D01*
X65270000Y-60837440D01*
X65517765Y-60788157D01*
X65605817Y-60729322D01*
X65738126Y-60784119D01*
X65913000Y-60657954D01*
X65913000Y-60212322D01*
X65917440Y-60190000D01*
X65917440Y-59817000D01*
X66167000Y-59817000D01*
X66167000Y-60657954D01*
X66341874Y-60784119D01*
X66600209Y-60677127D01*
X66675000Y-60612511D01*
X66749791Y-60677127D01*
X67008126Y-60784119D01*
X67183000Y-60657954D01*
X67183000Y-59817000D01*
X66167000Y-59817000D01*
X65917440Y-59817000D01*
X65917440Y-59552856D01*
X65928217Y-59555000D01*
X66151783Y-59555000D01*
X66167000Y-59551973D01*
X66167000Y-59563000D01*
X67183000Y-59563000D01*
X67183000Y-59551973D01*
X67198217Y-59555000D01*
X67421783Y-59555000D01*
X67437000Y-59551973D01*
X67437000Y-59563000D01*
X67448027Y-59563000D01*
X67422765Y-59690000D01*
X67448027Y-59817000D01*
X67437000Y-59817000D01*
X67437000Y-60657954D01*
X67611874Y-60784119D01*
X67870209Y-60677127D01*
X67933090Y-60622801D01*
X68137145Y-60759146D01*
X68468217Y-60825000D01*
X68691783Y-60825000D01*
X69022855Y-60759146D01*
X69226910Y-60622801D01*
X69289791Y-60677127D01*
X69548126Y-60784119D01*
X69723000Y-60657954D01*
X69723000Y-59817000D01*
X69711973Y-59817000D01*
X69737235Y-59690000D01*
X69711973Y-59563000D01*
X69723000Y-59563000D01*
X69723000Y-59551973D01*
X69738217Y-59555000D01*
X69961783Y-59555000D01*
X69977000Y-59551973D01*
X69977000Y-59563000D01*
X69988027Y-59563000D01*
X69962765Y-59690000D01*
X69988027Y-59817000D01*
X69977000Y-59817000D01*
X69977000Y-60657954D01*
X70151874Y-60784119D01*
X70410209Y-60677127D01*
X70473090Y-60622801D01*
X70677145Y-60759146D01*
X71008217Y-60825000D01*
X71231783Y-60825000D01*
X71562855Y-60759146D01*
X71755000Y-60630759D01*
X71947145Y-60759146D01*
X72278217Y-60825000D01*
X72501783Y-60825000D01*
X72832855Y-60759146D01*
X73036910Y-60622801D01*
X73099791Y-60677127D01*
X73358126Y-60784119D01*
X73533000Y-60657954D01*
X73533000Y-59817000D01*
X73787000Y-59817000D01*
X73787000Y-60657954D01*
X73961874Y-60784119D01*
X74220209Y-60677127D01*
X74295000Y-60612511D01*
X74369791Y-60677127D01*
X74628126Y-60784119D01*
X74803000Y-60657954D01*
X74803000Y-59817000D01*
X75057000Y-59817000D01*
X75057000Y-60657954D01*
X75231874Y-60784119D01*
X75490209Y-60677127D01*
X75565000Y-60612511D01*
X75639791Y-60677127D01*
X75898126Y-60784119D01*
X76073000Y-60657954D01*
X76073000Y-59817000D01*
X76327000Y-59817000D01*
X76327000Y-60657954D01*
X76501874Y-60784119D01*
X76760209Y-60677127D01*
X77095323Y-60387604D01*
X77294132Y-59991877D01*
X77169135Y-59817000D01*
X76327000Y-59817000D01*
X76073000Y-59817000D01*
X75057000Y-59817000D01*
X74803000Y-59817000D01*
X73787000Y-59817000D01*
X73533000Y-59817000D01*
X73521973Y-59817000D01*
X73547235Y-59690000D01*
X73521973Y-59563000D01*
X73533000Y-59563000D01*
X73533000Y-59551973D01*
X73548217Y-59555000D01*
X73771783Y-59555000D01*
X73787000Y-59551973D01*
X73787000Y-59563000D01*
X74803000Y-59563000D01*
X74803000Y-59551973D01*
X74818217Y-59555000D01*
X75041783Y-59555000D01*
X75057000Y-59551973D01*
X75057000Y-59563000D01*
X76073000Y-59563000D01*
X76073000Y-59551973D01*
X76088217Y-59555000D01*
X76311783Y-59555000D01*
X76327000Y-59551973D01*
X76327000Y-59563000D01*
X77169135Y-59563000D01*
X77294132Y-59388123D01*
X77132776Y-59066947D01*
X77269146Y-58862855D01*
X77357235Y-58420000D01*
X77269146Y-57977145D01*
X77018289Y-57601711D01*
X76642855Y-57350854D01*
X76311783Y-57285000D01*
X76088217Y-57285000D01*
X75757145Y-57350854D01*
X75565000Y-57479241D01*
X75372855Y-57350854D01*
X75041783Y-57285000D01*
X74818217Y-57285000D01*
X74487145Y-57350854D01*
X74295000Y-57479241D01*
X74102855Y-57350854D01*
X73771783Y-57285000D01*
X73548217Y-57285000D01*
X73217145Y-57350854D01*
X73025000Y-57479241D01*
X72832855Y-57350854D01*
X72501783Y-57285000D01*
X72278217Y-57285000D01*
X71947145Y-57350854D01*
X71755000Y-57479241D01*
X71562855Y-57350854D01*
X71231783Y-57285000D01*
X71008217Y-57285000D01*
X70735569Y-57339233D01*
X70989803Y-57084999D01*
X85330198Y-57084999D01*
X85584431Y-57339233D01*
X85311783Y-57285000D01*
X85088217Y-57285000D01*
X84757145Y-57350854D01*
X84381711Y-57601711D01*
X84130854Y-57977145D01*
X84042765Y-58420000D01*
X84130854Y-58862855D01*
X84142869Y-58880836D01*
X84101843Y-58942235D01*
X84052560Y-59190000D01*
X84052560Y-60190000D01*
X84101843Y-60437765D01*
X84242191Y-60647809D01*
X84452235Y-60788157D01*
X84700000Y-60837440D01*
X85700000Y-60837440D01*
X85947765Y-60788157D01*
X86035817Y-60729322D01*
X86168126Y-60784119D01*
X86343000Y-60657954D01*
X86343000Y-60212322D01*
X86347440Y-60190000D01*
X86347440Y-59817000D01*
X86597000Y-59817000D01*
X86597000Y-60657954D01*
X86771874Y-60784119D01*
X87030209Y-60677127D01*
X87105000Y-60612511D01*
X87179791Y-60677127D01*
X87438126Y-60784119D01*
X87613000Y-60657954D01*
X87613000Y-59817000D01*
X86597000Y-59817000D01*
X86347440Y-59817000D01*
X86347440Y-59552856D01*
X86358217Y-59555000D01*
X86581783Y-59555000D01*
X86597000Y-59551973D01*
X86597000Y-59563000D01*
X87613000Y-59563000D01*
X87613000Y-59551973D01*
X87628217Y-59555000D01*
X87851783Y-59555000D01*
X87867000Y-59551973D01*
X87867000Y-59563000D01*
X87878027Y-59563000D01*
X87852765Y-59690000D01*
X87878027Y-59817000D01*
X87867000Y-59817000D01*
X87867000Y-60657954D01*
X88041874Y-60784119D01*
X88300209Y-60677127D01*
X88363090Y-60622801D01*
X88567145Y-60759146D01*
X88898217Y-60825000D01*
X89121783Y-60825000D01*
X89452855Y-60759146D01*
X89656910Y-60622801D01*
X89719791Y-60677127D01*
X89978126Y-60784119D01*
X90153000Y-60657954D01*
X90153000Y-59817000D01*
X90141973Y-59817000D01*
X90167235Y-59690000D01*
X90141973Y-59563000D01*
X90153000Y-59563000D01*
X90153000Y-59551973D01*
X90168217Y-59555000D01*
X90391783Y-59555000D01*
X90407000Y-59551973D01*
X90407000Y-59563000D01*
X90418027Y-59563000D01*
X90392765Y-59690000D01*
X90418027Y-59817000D01*
X90407000Y-59817000D01*
X90407000Y-60657954D01*
X90581874Y-60784119D01*
X90840209Y-60677127D01*
X90903090Y-60622801D01*
X91107145Y-60759146D01*
X91438217Y-60825000D01*
X91661783Y-60825000D01*
X91992855Y-60759146D01*
X92185000Y-60630759D01*
X92377145Y-60759146D01*
X92708217Y-60825000D01*
X92931783Y-60825000D01*
X93262855Y-60759146D01*
X93466910Y-60622801D01*
X93529791Y-60677127D01*
X93788126Y-60784119D01*
X93963000Y-60657954D01*
X93963000Y-59817000D01*
X94217000Y-59817000D01*
X94217000Y-60657954D01*
X94391874Y-60784119D01*
X94650209Y-60677127D01*
X94725000Y-60612511D01*
X94799791Y-60677127D01*
X95058126Y-60784119D01*
X95233000Y-60657954D01*
X95233000Y-59817000D01*
X95487000Y-59817000D01*
X95487000Y-60657954D01*
X95661874Y-60784119D01*
X95920209Y-60677127D01*
X95995000Y-60612511D01*
X96069791Y-60677127D01*
X96328126Y-60784119D01*
X96503000Y-60657954D01*
X96503000Y-59817000D01*
X96757000Y-59817000D01*
X96757000Y-60657954D01*
X96931874Y-60784119D01*
X97190209Y-60677127D01*
X97525323Y-60387604D01*
X97724132Y-59991877D01*
X97599135Y-59817000D01*
X96757000Y-59817000D01*
X96503000Y-59817000D01*
X95487000Y-59817000D01*
X95233000Y-59817000D01*
X94217000Y-59817000D01*
X93963000Y-59817000D01*
X93951973Y-59817000D01*
X93977235Y-59690000D01*
X93951973Y-59563000D01*
X93963000Y-59563000D01*
X93963000Y-59551973D01*
X93978217Y-59555000D01*
X94201783Y-59555000D01*
X94217000Y-59551973D01*
X94217000Y-59563000D01*
X95233000Y-59563000D01*
X95233000Y-59551973D01*
X95248217Y-59555000D01*
X95471783Y-59555000D01*
X95487000Y-59551973D01*
X95487000Y-59563000D01*
X96503000Y-59563000D01*
X96503000Y-59551973D01*
X96518217Y-59555000D01*
X96741783Y-59555000D01*
X96757000Y-59551973D01*
X96757000Y-59563000D01*
X97599135Y-59563000D01*
X97724132Y-59388123D01*
X97562776Y-59066947D01*
X97699146Y-58862855D01*
X97787235Y-58420000D01*
X97736314Y-58164000D01*
X99223686Y-58164000D01*
X99172765Y-58420000D01*
X99260854Y-58862855D01*
X99389241Y-59055000D01*
X99260854Y-59247145D01*
X99172765Y-59690000D01*
X99260854Y-60132855D01*
X99272869Y-60150836D01*
X99231843Y-60212235D01*
X99182560Y-60460000D01*
X99182560Y-61460000D01*
X99231843Y-61707765D01*
X99372191Y-61917809D01*
X99582235Y-62058157D01*
X99830000Y-62107440D01*
X100830000Y-62107440D01*
X101077765Y-62058157D01*
X101287809Y-61917809D01*
X101428157Y-61707765D01*
X101477440Y-61460000D01*
X101477440Y-60460000D01*
X101428157Y-60212235D01*
X101387131Y-60150836D01*
X101399146Y-60132855D01*
X101487235Y-59690000D01*
X101399146Y-59247145D01*
X101270759Y-59055000D01*
X101399146Y-58862855D01*
X101487235Y-58420000D01*
X101436314Y-58164000D01*
X103033686Y-58164000D01*
X102982765Y-58420000D01*
X103070854Y-58862855D01*
X103082869Y-58880836D01*
X103041843Y-58942235D01*
X102992560Y-59190000D01*
X102992560Y-60190000D01*
X103041843Y-60437765D01*
X103182191Y-60647809D01*
X103392235Y-60788157D01*
X103640000Y-60837440D01*
X104640000Y-60837440D01*
X104887765Y-60788157D01*
X104975817Y-60729322D01*
X105108126Y-60784119D01*
X105283000Y-60657954D01*
X105283000Y-60212322D01*
X105287440Y-60190000D01*
X105287440Y-59817000D01*
X105537000Y-59817000D01*
X105537000Y-60657954D01*
X105711874Y-60784119D01*
X105970209Y-60677127D01*
X106045000Y-60612511D01*
X106119791Y-60677127D01*
X106378126Y-60784119D01*
X106553000Y-60657954D01*
X106553000Y-59817000D01*
X105537000Y-59817000D01*
X105287440Y-59817000D01*
X105287440Y-59552856D01*
X105298217Y-59555000D01*
X105521783Y-59555000D01*
X105537000Y-59551973D01*
X105537000Y-59563000D01*
X106553000Y-59563000D01*
X106553000Y-59551973D01*
X106568217Y-59555000D01*
X106791783Y-59555000D01*
X106807000Y-59551973D01*
X106807000Y-59563000D01*
X106818027Y-59563000D01*
X106792765Y-59690000D01*
X106818027Y-59817000D01*
X106807000Y-59817000D01*
X106807000Y-60657954D01*
X106981874Y-60784119D01*
X107240209Y-60677127D01*
X107303090Y-60622801D01*
X107507145Y-60759146D01*
X107838217Y-60825000D01*
X108061783Y-60825000D01*
X108392855Y-60759146D01*
X108596910Y-60622801D01*
X108659791Y-60677127D01*
X108918126Y-60784119D01*
X109093000Y-60657954D01*
X109093000Y-59817000D01*
X109081973Y-59817000D01*
X109107235Y-59690000D01*
X109081973Y-59563000D01*
X109093000Y-59563000D01*
X109093000Y-59551973D01*
X109108217Y-59555000D01*
X109331783Y-59555000D01*
X109347000Y-59551973D01*
X109347000Y-59563000D01*
X109358027Y-59563000D01*
X109332765Y-59690000D01*
X109358027Y-59817000D01*
X109347000Y-59817000D01*
X109347000Y-60657954D01*
X109521874Y-60784119D01*
X109780209Y-60677127D01*
X109843090Y-60622801D01*
X110047145Y-60759146D01*
X110378217Y-60825000D01*
X110601783Y-60825000D01*
X110932855Y-60759146D01*
X111125000Y-60630759D01*
X111317145Y-60759146D01*
X111648217Y-60825000D01*
X111871783Y-60825000D01*
X112202855Y-60759146D01*
X112406910Y-60622801D01*
X112469791Y-60677127D01*
X112728126Y-60784119D01*
X112903000Y-60657954D01*
X112903000Y-59817000D01*
X113157000Y-59817000D01*
X113157000Y-60657954D01*
X113331874Y-60784119D01*
X113590209Y-60677127D01*
X113665000Y-60612511D01*
X113739791Y-60677127D01*
X113998126Y-60784119D01*
X114173000Y-60657954D01*
X114173000Y-59817000D01*
X114427000Y-59817000D01*
X114427000Y-60657954D01*
X114601874Y-60784119D01*
X114860209Y-60677127D01*
X114935000Y-60612511D01*
X115009791Y-60677127D01*
X115268126Y-60784119D01*
X115443000Y-60657954D01*
X115443000Y-59817000D01*
X115697000Y-59817000D01*
X115697000Y-60657954D01*
X115871874Y-60784119D01*
X116130209Y-60677127D01*
X116465323Y-60387604D01*
X116664132Y-59991877D01*
X116539135Y-59817000D01*
X115697000Y-59817000D01*
X115443000Y-59817000D01*
X114427000Y-59817000D01*
X114173000Y-59817000D01*
X113157000Y-59817000D01*
X112903000Y-59817000D01*
X112891973Y-59817000D01*
X112917235Y-59690000D01*
X112891973Y-59563000D01*
X112903000Y-59563000D01*
X112903000Y-59551973D01*
X112918217Y-59555000D01*
X113141783Y-59555000D01*
X113157000Y-59551973D01*
X113157000Y-59563000D01*
X114173000Y-59563000D01*
X114173000Y-59551973D01*
X114188217Y-59555000D01*
X114411783Y-59555000D01*
X114427000Y-59551973D01*
X114427000Y-59563000D01*
X115443000Y-59563000D01*
X115443000Y-59551973D01*
X115458217Y-59555000D01*
X115681783Y-59555000D01*
X115697000Y-59551973D01*
X115697000Y-59563000D01*
X116539135Y-59563000D01*
X116664132Y-59388123D01*
X116502776Y-59066947D01*
X116639146Y-58862855D01*
X116727235Y-58420000D01*
X116639146Y-57977145D01*
X116388289Y-57601711D01*
X116012855Y-57350854D01*
X115681783Y-57285000D01*
X115458217Y-57285000D01*
X115127145Y-57350854D01*
X114935000Y-57479241D01*
X114742855Y-57350854D01*
X114411783Y-57285000D01*
X114188217Y-57285000D01*
X113857145Y-57350854D01*
X113665000Y-57479241D01*
X113472855Y-57350854D01*
X113141783Y-57285000D01*
X112918217Y-57285000D01*
X112587145Y-57350854D01*
X112395000Y-57479241D01*
X112202855Y-57350854D01*
X111871783Y-57285000D01*
X111648217Y-57285000D01*
X111317145Y-57350854D01*
X111125000Y-57479241D01*
X110932855Y-57350854D01*
X110601783Y-57285000D01*
X110378217Y-57285000D01*
X110047145Y-57350854D01*
X109855000Y-57479241D01*
X109662855Y-57350854D01*
X109331783Y-57285000D01*
X109108217Y-57285000D01*
X108777145Y-57350854D01*
X108585000Y-57479241D01*
X108392855Y-57350854D01*
X108061783Y-57285000D01*
X107889801Y-57285000D01*
X107524331Y-56919530D01*
X107481929Y-56856071D01*
X107287519Y-56726170D01*
X107552420Y-56461269D01*
X107685472Y-56140050D01*
X118130000Y-56140050D01*
X118130000Y-56889950D01*
X118416974Y-57582767D01*
X118947233Y-58113026D01*
X119640050Y-58400000D01*
X120389950Y-58400000D01*
X121082767Y-58113026D01*
X121613026Y-57582767D01*
X121900000Y-56889950D01*
X121900000Y-56140050D01*
X121613026Y-55447233D01*
X121082767Y-54916974D01*
X120389950Y-54630000D01*
X119640050Y-54630000D01*
X118947233Y-54916974D01*
X118416974Y-55447233D01*
X118130000Y-56140050D01*
X107685472Y-56140050D01*
X107709989Y-56080863D01*
X107709989Y-55669115D01*
X107552420Y-55288709D01*
X107261269Y-54997558D01*
X106880863Y-54839989D01*
X106469115Y-54839989D01*
X106191000Y-54955188D01*
X106191000Y-54944115D01*
X106033431Y-54563709D01*
X105742280Y-54272558D01*
X105361874Y-54114989D01*
X105160446Y-54114989D01*
X105017431Y-53769720D01*
X104726280Y-53478569D01*
X104345874Y-53321000D01*
X103934126Y-53321000D01*
X103553720Y-53478569D01*
X103436289Y-53596000D01*
X85539711Y-53596000D01*
X85422280Y-53478569D01*
X85041874Y-53321000D01*
X84630126Y-53321000D01*
X84249720Y-53478569D01*
X84132289Y-53596000D01*
X68908847Y-53596000D01*
X68834000Y-53581112D01*
X68759153Y-53596000D01*
X68759148Y-53596000D01*
X68537463Y-53640096D01*
X68286071Y-53808071D01*
X68243671Y-53871527D01*
X64830199Y-57285000D01*
X64658217Y-57285000D01*
X64327145Y-57350854D01*
X63951711Y-57601711D01*
X63700854Y-57977145D01*
X63612765Y-58420000D01*
X62357000Y-58420000D01*
X62357000Y-51824000D01*
X98928560Y-51824000D01*
X98928560Y-52824000D01*
X98977843Y-53071765D01*
X99118191Y-53281809D01*
X99328235Y-53422157D01*
X99576000Y-53471440D01*
X100576000Y-53471440D01*
X100823765Y-53422157D01*
X100885164Y-53381131D01*
X100903145Y-53393146D01*
X101234217Y-53459000D01*
X101457783Y-53459000D01*
X101788855Y-53393146D01*
X102164289Y-53142289D01*
X102415146Y-52766855D01*
X102503235Y-52324000D01*
X102415146Y-51881145D01*
X102164289Y-51505711D01*
X101788855Y-51254854D01*
X101457783Y-51189000D01*
X101234217Y-51189000D01*
X100903145Y-51254854D01*
X100885164Y-51266869D01*
X100823765Y-51225843D01*
X100576000Y-51176560D01*
X99576000Y-51176560D01*
X99328235Y-51225843D01*
X99118191Y-51366191D01*
X98977843Y-51576235D01*
X98928560Y-51824000D01*
X62357000Y-51824000D01*
X62357000Y-49582606D01*
X63552606Y-48387000D01*
X121867394Y-48387000D01*
X123063000Y-49582606D01*
X123063000Y-49582606D01*
G37*
X123063000Y-49582606D02*
X123063000Y-62177394D01*
X121867394Y-63373000D01*
X63552606Y-63373000D01*
X62357000Y-62177394D01*
X62357000Y-58420000D01*
X63612765Y-58420000D01*
X63700854Y-58862855D01*
X63712869Y-58880836D01*
X63671843Y-58942235D01*
X63622560Y-59190000D01*
X63622560Y-60190000D01*
X63671843Y-60437765D01*
X63812191Y-60647809D01*
X64022235Y-60788157D01*
X64270000Y-60837440D01*
X65270000Y-60837440D01*
X65517765Y-60788157D01*
X65605817Y-60729322D01*
X65738126Y-60784119D01*
X65913000Y-60657954D01*
X65913000Y-60212322D01*
X65917440Y-60190000D01*
X65917440Y-59817000D01*
X66167000Y-59817000D01*
X66167000Y-60657954D01*
X66341874Y-60784119D01*
X66600209Y-60677127D01*
X66675000Y-60612511D01*
X66749791Y-60677127D01*
X67008126Y-60784119D01*
X67183000Y-60657954D01*
X67183000Y-59817000D01*
X66167000Y-59817000D01*
X65917440Y-59817000D01*
X65917440Y-59552856D01*
X65928217Y-59555000D01*
X66151783Y-59555000D01*
X66167000Y-59551973D01*
X66167000Y-59563000D01*
X67183000Y-59563000D01*
X67183000Y-59551973D01*
X67198217Y-59555000D01*
X67421783Y-59555000D01*
X67437000Y-59551973D01*
X67437000Y-59563000D01*
X67448027Y-59563000D01*
X67422765Y-59690000D01*
X67448027Y-59817000D01*
X67437000Y-59817000D01*
X67437000Y-60657954D01*
X67611874Y-60784119D01*
X67870209Y-60677127D01*
X67933090Y-60622801D01*
X68137145Y-60759146D01*
X68468217Y-60825000D01*
X68691783Y-60825000D01*
X69022855Y-60759146D01*
X69226910Y-60622801D01*
X69289791Y-60677127D01*
X69548126Y-60784119D01*
X69723000Y-60657954D01*
X69723000Y-59817000D01*
X69711973Y-59817000D01*
X69737235Y-59690000D01*
X69711973Y-59563000D01*
X69723000Y-59563000D01*
X69723000Y-59551973D01*
X69738217Y-59555000D01*
X69961783Y-59555000D01*
X69977000Y-59551973D01*
X69977000Y-59563000D01*
X69988027Y-59563000D01*
X69962765Y-59690000D01*
X69988027Y-59817000D01*
X69977000Y-59817000D01*
X69977000Y-60657954D01*
X70151874Y-60784119D01*
X70410209Y-60677127D01*
X70473090Y-60622801D01*
X70677145Y-60759146D01*
X71008217Y-60825000D01*
X71231783Y-60825000D01*
X71562855Y-60759146D01*
X71755000Y-60630759D01*
X71947145Y-60759146D01*
X72278217Y-60825000D01*
X72501783Y-60825000D01*
X72832855Y-60759146D01*
X73036910Y-60622801D01*
X73099791Y-60677127D01*
X73358126Y-60784119D01*
X73533000Y-60657954D01*
X73533000Y-59817000D01*
X73787000Y-59817000D01*
X73787000Y-60657954D01*
X73961874Y-60784119D01*
X74220209Y-60677127D01*
X74295000Y-60612511D01*
X74369791Y-60677127D01*
X74628126Y-60784119D01*
X74803000Y-60657954D01*
X74803000Y-59817000D01*
X75057000Y-59817000D01*
X75057000Y-60657954D01*
X75231874Y-60784119D01*
X75490209Y-60677127D01*
X75565000Y-60612511D01*
X75639791Y-60677127D01*
X75898126Y-60784119D01*
X76073000Y-60657954D01*
X76073000Y-59817000D01*
X76327000Y-59817000D01*
X76327000Y-60657954D01*
X76501874Y-60784119D01*
X76760209Y-60677127D01*
X77095323Y-60387604D01*
X77294132Y-59991877D01*
X77169135Y-59817000D01*
X76327000Y-59817000D01*
X76073000Y-59817000D01*
X75057000Y-59817000D01*
X74803000Y-59817000D01*
X73787000Y-59817000D01*
X73533000Y-59817000D01*
X73521973Y-59817000D01*
X73547235Y-59690000D01*
X73521973Y-59563000D01*
X73533000Y-59563000D01*
X73533000Y-59551973D01*
X73548217Y-59555000D01*
X73771783Y-59555000D01*
X73787000Y-59551973D01*
X73787000Y-59563000D01*
X74803000Y-59563000D01*
X74803000Y-59551973D01*
X74818217Y-59555000D01*
X75041783Y-59555000D01*
X75057000Y-59551973D01*
X75057000Y-59563000D01*
X76073000Y-59563000D01*
X76073000Y-59551973D01*
X76088217Y-59555000D01*
X76311783Y-59555000D01*
X76327000Y-59551973D01*
X76327000Y-59563000D01*
X77169135Y-59563000D01*
X77294132Y-59388123D01*
X77132776Y-59066947D01*
X77269146Y-58862855D01*
X77357235Y-58420000D01*
X77269146Y-57977145D01*
X77018289Y-57601711D01*
X76642855Y-57350854D01*
X76311783Y-57285000D01*
X76088217Y-57285000D01*
X75757145Y-57350854D01*
X75565000Y-57479241D01*
X75372855Y-57350854D01*
X75041783Y-57285000D01*
X74818217Y-57285000D01*
X74487145Y-57350854D01*
X74295000Y-57479241D01*
X74102855Y-57350854D01*
X73771783Y-57285000D01*
X73548217Y-57285000D01*
X73217145Y-57350854D01*
X73025000Y-57479241D01*
X72832855Y-57350854D01*
X72501783Y-57285000D01*
X72278217Y-57285000D01*
X71947145Y-57350854D01*
X71755000Y-57479241D01*
X71562855Y-57350854D01*
X71231783Y-57285000D01*
X71008217Y-57285000D01*
X70735569Y-57339233D01*
X70989803Y-57084999D01*
X85330198Y-57084999D01*
X85584431Y-57339233D01*
X85311783Y-57285000D01*
X85088217Y-57285000D01*
X84757145Y-57350854D01*
X84381711Y-57601711D01*
X84130854Y-57977145D01*
X84042765Y-58420000D01*
X84130854Y-58862855D01*
X84142869Y-58880836D01*
X84101843Y-58942235D01*
X84052560Y-59190000D01*
X84052560Y-60190000D01*
X84101843Y-60437765D01*
X84242191Y-60647809D01*
X84452235Y-60788157D01*
X84700000Y-60837440D01*
X85700000Y-60837440D01*
X85947765Y-60788157D01*
X86035817Y-60729322D01*
X86168126Y-60784119D01*
X86343000Y-60657954D01*
X86343000Y-60212322D01*
X86347440Y-60190000D01*
X86347440Y-59817000D01*
X86597000Y-59817000D01*
X86597000Y-60657954D01*
X86771874Y-60784119D01*
X87030209Y-60677127D01*
X87105000Y-60612511D01*
X87179791Y-60677127D01*
X87438126Y-60784119D01*
X87613000Y-60657954D01*
X87613000Y-59817000D01*
X86597000Y-59817000D01*
X86347440Y-59817000D01*
X86347440Y-59552856D01*
X86358217Y-59555000D01*
X86581783Y-59555000D01*
X86597000Y-59551973D01*
X86597000Y-59563000D01*
X87613000Y-59563000D01*
X87613000Y-59551973D01*
X87628217Y-59555000D01*
X87851783Y-59555000D01*
X87867000Y-59551973D01*
X87867000Y-59563000D01*
X87878027Y-59563000D01*
X87852765Y-59690000D01*
X87878027Y-59817000D01*
X87867000Y-59817000D01*
X87867000Y-60657954D01*
X88041874Y-60784119D01*
X88300209Y-60677127D01*
X88363090Y-60622801D01*
X88567145Y-60759146D01*
X88898217Y-60825000D01*
X89121783Y-60825000D01*
X89452855Y-60759146D01*
X89656910Y-60622801D01*
X89719791Y-60677127D01*
X89978126Y-60784119D01*
X90153000Y-60657954D01*
X90153000Y-59817000D01*
X90141973Y-59817000D01*
X90167235Y-59690000D01*
X90141973Y-59563000D01*
X90153000Y-59563000D01*
X90153000Y-59551973D01*
X90168217Y-59555000D01*
X90391783Y-59555000D01*
X90407000Y-59551973D01*
X90407000Y-59563000D01*
X90418027Y-59563000D01*
X90392765Y-59690000D01*
X90418027Y-59817000D01*
X90407000Y-59817000D01*
X90407000Y-60657954D01*
X90581874Y-60784119D01*
X90840209Y-60677127D01*
X90903090Y-60622801D01*
X91107145Y-60759146D01*
X91438217Y-60825000D01*
X91661783Y-60825000D01*
X91992855Y-60759146D01*
X92185000Y-60630759D01*
X92377145Y-60759146D01*
X92708217Y-60825000D01*
X92931783Y-60825000D01*
X93262855Y-60759146D01*
X93466910Y-60622801D01*
X93529791Y-60677127D01*
X93788126Y-60784119D01*
X93963000Y-60657954D01*
X93963000Y-59817000D01*
X94217000Y-59817000D01*
X94217000Y-60657954D01*
X94391874Y-60784119D01*
X94650209Y-60677127D01*
X94725000Y-60612511D01*
X94799791Y-60677127D01*
X95058126Y-60784119D01*
X95233000Y-60657954D01*
X95233000Y-59817000D01*
X95487000Y-59817000D01*
X95487000Y-60657954D01*
X95661874Y-60784119D01*
X95920209Y-60677127D01*
X95995000Y-60612511D01*
X96069791Y-60677127D01*
X96328126Y-60784119D01*
X96503000Y-60657954D01*
X96503000Y-59817000D01*
X96757000Y-59817000D01*
X96757000Y-60657954D01*
X96931874Y-60784119D01*
X97190209Y-60677127D01*
X97525323Y-60387604D01*
X97724132Y-59991877D01*
X97599135Y-59817000D01*
X96757000Y-59817000D01*
X96503000Y-59817000D01*
X95487000Y-59817000D01*
X95233000Y-59817000D01*
X94217000Y-59817000D01*
X93963000Y-59817000D01*
X93951973Y-59817000D01*
X93977235Y-59690000D01*
X93951973Y-59563000D01*
X93963000Y-59563000D01*
X93963000Y-59551973D01*
X93978217Y-59555000D01*
X94201783Y-59555000D01*
X94217000Y-59551973D01*
X94217000Y-59563000D01*
X95233000Y-59563000D01*
X95233000Y-59551973D01*
X95248217Y-59555000D01*
X95471783Y-59555000D01*
X95487000Y-59551973D01*
X95487000Y-59563000D01*
X96503000Y-59563000D01*
X96503000Y-59551973D01*
X96518217Y-59555000D01*
X96741783Y-59555000D01*
X96757000Y-59551973D01*
X96757000Y-59563000D01*
X97599135Y-59563000D01*
X97724132Y-59388123D01*
X97562776Y-59066947D01*
X97699146Y-58862855D01*
X97787235Y-58420000D01*
X97736314Y-58164000D01*
X99223686Y-58164000D01*
X99172765Y-58420000D01*
X99260854Y-58862855D01*
X99389241Y-59055000D01*
X99260854Y-59247145D01*
X99172765Y-59690000D01*
X99260854Y-60132855D01*
X99272869Y-60150836D01*
X99231843Y-60212235D01*
X99182560Y-60460000D01*
X99182560Y-61460000D01*
X99231843Y-61707765D01*
X99372191Y-61917809D01*
X99582235Y-62058157D01*
X99830000Y-62107440D01*
X100830000Y-62107440D01*
X101077765Y-62058157D01*
X101287809Y-61917809D01*
X101428157Y-61707765D01*
X101477440Y-61460000D01*
X101477440Y-60460000D01*
X101428157Y-60212235D01*
X101387131Y-60150836D01*
X101399146Y-60132855D01*
X101487235Y-59690000D01*
X101399146Y-59247145D01*
X101270759Y-59055000D01*
X101399146Y-58862855D01*
X101487235Y-58420000D01*
X101436314Y-58164000D01*
X103033686Y-58164000D01*
X102982765Y-58420000D01*
X103070854Y-58862855D01*
X103082869Y-58880836D01*
X103041843Y-58942235D01*
X102992560Y-59190000D01*
X102992560Y-60190000D01*
X103041843Y-60437765D01*
X103182191Y-60647809D01*
X103392235Y-60788157D01*
X103640000Y-60837440D01*
X104640000Y-60837440D01*
X104887765Y-60788157D01*
X104975817Y-60729322D01*
X105108126Y-60784119D01*
X105283000Y-60657954D01*
X105283000Y-60212322D01*
X105287440Y-60190000D01*
X105287440Y-59817000D01*
X105537000Y-59817000D01*
X105537000Y-60657954D01*
X105711874Y-60784119D01*
X105970209Y-60677127D01*
X106045000Y-60612511D01*
X106119791Y-60677127D01*
X106378126Y-60784119D01*
X106553000Y-60657954D01*
X106553000Y-59817000D01*
X105537000Y-59817000D01*
X105287440Y-59817000D01*
X105287440Y-59552856D01*
X105298217Y-59555000D01*
X105521783Y-59555000D01*
X105537000Y-59551973D01*
X105537000Y-59563000D01*
X106553000Y-59563000D01*
X106553000Y-59551973D01*
X106568217Y-59555000D01*
X106791783Y-59555000D01*
X106807000Y-59551973D01*
X106807000Y-59563000D01*
X106818027Y-59563000D01*
X106792765Y-59690000D01*
X106818027Y-59817000D01*
X106807000Y-59817000D01*
X106807000Y-60657954D01*
X106981874Y-60784119D01*
X107240209Y-60677127D01*
X107303090Y-60622801D01*
X107507145Y-60759146D01*
X107838217Y-60825000D01*
X108061783Y-60825000D01*
X108392855Y-60759146D01*
X108596910Y-60622801D01*
X108659791Y-60677127D01*
X108918126Y-60784119D01*
X109093000Y-60657954D01*
X109093000Y-59817000D01*
X109081973Y-59817000D01*
X109107235Y-59690000D01*
X109081973Y-59563000D01*
X109093000Y-59563000D01*
X109093000Y-59551973D01*
X109108217Y-59555000D01*
X109331783Y-59555000D01*
X109347000Y-59551973D01*
X109347000Y-59563000D01*
X109358027Y-59563000D01*
X109332765Y-59690000D01*
X109358027Y-59817000D01*
X109347000Y-59817000D01*
X109347000Y-60657954D01*
X109521874Y-60784119D01*
X109780209Y-60677127D01*
X109843090Y-60622801D01*
X110047145Y-60759146D01*
X110378217Y-60825000D01*
X110601783Y-60825000D01*
X110932855Y-60759146D01*
X111125000Y-60630759D01*
X111317145Y-60759146D01*
X111648217Y-60825000D01*
X111871783Y-60825000D01*
X112202855Y-60759146D01*
X112406910Y-60622801D01*
X112469791Y-60677127D01*
X112728126Y-60784119D01*
X112903000Y-60657954D01*
X112903000Y-59817000D01*
X113157000Y-59817000D01*
X113157000Y-60657954D01*
X113331874Y-60784119D01*
X113590209Y-60677127D01*
X113665000Y-60612511D01*
X113739791Y-60677127D01*
X113998126Y-60784119D01*
X114173000Y-60657954D01*
X114173000Y-59817000D01*
X114427000Y-59817000D01*
X114427000Y-60657954D01*
X114601874Y-60784119D01*
X114860209Y-60677127D01*
X114935000Y-60612511D01*
X115009791Y-60677127D01*
X115268126Y-60784119D01*
X115443000Y-60657954D01*
X115443000Y-59817000D01*
X115697000Y-59817000D01*
X115697000Y-60657954D01*
X115871874Y-60784119D01*
X116130209Y-60677127D01*
X116465323Y-60387604D01*
X116664132Y-59991877D01*
X116539135Y-59817000D01*
X115697000Y-59817000D01*
X115443000Y-59817000D01*
X114427000Y-59817000D01*
X114173000Y-59817000D01*
X113157000Y-59817000D01*
X112903000Y-59817000D01*
X112891973Y-59817000D01*
X112917235Y-59690000D01*
X112891973Y-59563000D01*
X112903000Y-59563000D01*
X112903000Y-59551973D01*
X112918217Y-59555000D01*
X113141783Y-59555000D01*
X113157000Y-59551973D01*
X113157000Y-59563000D01*
X114173000Y-59563000D01*
X114173000Y-59551973D01*
X114188217Y-59555000D01*
X114411783Y-59555000D01*
X114427000Y-59551973D01*
X114427000Y-59563000D01*
X115443000Y-59563000D01*
X115443000Y-59551973D01*
X115458217Y-59555000D01*
X115681783Y-59555000D01*
X115697000Y-59551973D01*
X115697000Y-59563000D01*
X116539135Y-59563000D01*
X116664132Y-59388123D01*
X116502776Y-59066947D01*
X116639146Y-58862855D01*
X116727235Y-58420000D01*
X116639146Y-57977145D01*
X116388289Y-57601711D01*
X116012855Y-57350854D01*
X115681783Y-57285000D01*
X115458217Y-57285000D01*
X115127145Y-57350854D01*
X114935000Y-57479241D01*
X114742855Y-57350854D01*
X114411783Y-57285000D01*
X114188217Y-57285000D01*
X113857145Y-57350854D01*
X113665000Y-57479241D01*
X113472855Y-57350854D01*
X113141783Y-57285000D01*
X112918217Y-57285000D01*
X112587145Y-57350854D01*
X112395000Y-57479241D01*
X112202855Y-57350854D01*
X111871783Y-57285000D01*
X111648217Y-57285000D01*
X111317145Y-57350854D01*
X111125000Y-57479241D01*
X110932855Y-57350854D01*
X110601783Y-57285000D01*
X110378217Y-57285000D01*
X110047145Y-57350854D01*
X109855000Y-57479241D01*
X109662855Y-57350854D01*
X109331783Y-57285000D01*
X109108217Y-57285000D01*
X108777145Y-57350854D01*
X108585000Y-57479241D01*
X108392855Y-57350854D01*
X108061783Y-57285000D01*
X107889801Y-57285000D01*
X107524331Y-56919530D01*
X107481929Y-56856071D01*
X107287519Y-56726170D01*
X107552420Y-56461269D01*
X107685472Y-56140050D01*
X118130000Y-56140050D01*
X118130000Y-56889950D01*
X118416974Y-57582767D01*
X118947233Y-58113026D01*
X119640050Y-58400000D01*
X120389950Y-58400000D01*
X121082767Y-58113026D01*
X121613026Y-57582767D01*
X121900000Y-56889950D01*
X121900000Y-56140050D01*
X121613026Y-55447233D01*
X121082767Y-54916974D01*
X120389950Y-54630000D01*
X119640050Y-54630000D01*
X118947233Y-54916974D01*
X118416974Y-55447233D01*
X118130000Y-56140050D01*
X107685472Y-56140050D01*
X107709989Y-56080863D01*
X107709989Y-55669115D01*
X107552420Y-55288709D01*
X107261269Y-54997558D01*
X106880863Y-54839989D01*
X106469115Y-54839989D01*
X106191000Y-54955188D01*
X106191000Y-54944115D01*
X106033431Y-54563709D01*
X105742280Y-54272558D01*
X105361874Y-54114989D01*
X105160446Y-54114989D01*
X105017431Y-53769720D01*
X104726280Y-53478569D01*
X104345874Y-53321000D01*
X103934126Y-53321000D01*
X103553720Y-53478569D01*
X103436289Y-53596000D01*
X85539711Y-53596000D01*
X85422280Y-53478569D01*
X85041874Y-53321000D01*
X84630126Y-53321000D01*
X84249720Y-53478569D01*
X84132289Y-53596000D01*
X68908847Y-53596000D01*
X68834000Y-53581112D01*
X68759153Y-53596000D01*
X68759148Y-53596000D01*
X68537463Y-53640096D01*
X68286071Y-53808071D01*
X68243671Y-53871527D01*
X64830199Y-57285000D01*
X64658217Y-57285000D01*
X64327145Y-57350854D01*
X63951711Y-57601711D01*
X63700854Y-57977145D01*
X63612765Y-58420000D01*
X62357000Y-58420000D01*
X62357000Y-51824000D01*
X98928560Y-51824000D01*
X98928560Y-52824000D01*
X98977843Y-53071765D01*
X99118191Y-53281809D01*
X99328235Y-53422157D01*
X99576000Y-53471440D01*
X100576000Y-53471440D01*
X100823765Y-53422157D01*
X100885164Y-53381131D01*
X100903145Y-53393146D01*
X101234217Y-53459000D01*
X101457783Y-53459000D01*
X101788855Y-53393146D01*
X102164289Y-53142289D01*
X102415146Y-52766855D01*
X102503235Y-52324000D01*
X102415146Y-51881145D01*
X102164289Y-51505711D01*
X101788855Y-51254854D01*
X101457783Y-51189000D01*
X101234217Y-51189000D01*
X100903145Y-51254854D01*
X100885164Y-51266869D01*
X100823765Y-51225843D01*
X100576000Y-51176560D01*
X99576000Y-51176560D01*
X99328235Y-51225843D01*
X99118191Y-51366191D01*
X98977843Y-51576235D01*
X98928560Y-51824000D01*
X62357000Y-51824000D01*
X62357000Y-49582606D01*
X63552606Y-48387000D01*
X121867394Y-48387000D01*
X123063000Y-49582606D01*
G04 #@! TD*
M02*
